{
  "name": "prescription",
  "base": "PersistedModel",
  "idInjection": true,
  "options": {
    "validateUpsert": true
  },
  "properties": {
    "active": {
      "type": "boolean",
      "required": true
    },
    "startingDate": {
      "type": "date",
      "required": true
    },
    "drug": {
      "type": "string",
      "required": true
    },
    "quantity": {
      "type": "string",
      "required": true
    },
    "medicineUnit": {
      "type": "string",
      "required": true
    },
    "medicineUnitMeasurement": {
      "type": "string",
      "required": true
    },
    "refills": {
      "type": "number",
      "required": true
    },
    "numberOfTablets": {
      "type": "number",
      "required": true
    },
    "notes": {
      "type": "string",
      "required": true
    },
    "subtitutionAllowed": {
      "type": "boolean",
      "required": true
    },
    "takeAmount": {
      "type": "number",
      "required": true
    },
    "takeUnit": {
      "type": "string",
      "required": true
    },
    "takeInsertZone": {
      "type": "string",
      "required": true
    },
    "takeTimeInterval": {
      "type": "string",
      "required": true
    }
  },
  "validations": [],
  "relations": {},
  "acls": [],
  "methods": {}
}
