{
  "_meta": {
    "sources": [
      "loopback/common/models",
      "loopback/server/models",
      "../common/models",
      "./models"
    ],
    "mixins": [
      "loopback/common/mixins",
      "loopback/server/mixins",
      "../common/mixins",
      "./mixins"
    ]
  },
  "User": {
    "dataSource": "db"
  },
  "AccessToken": {
    "dataSource": "db"
  },
  "ACL": {
    "dataSource": "db"
  },
  "RoleMapping": {
    "dataSource": "mongodatabase",
    "public": true
  },
  "Role": {
    "dataSource": "mongodatabase",
    "public": true
  },
  "state": {
    "dataSource": "mongodatabase",
    "public": true,
    "$promise": {},
    "$resolved": true
  },
  "nurse": {
    "dataSource": "mongodatabase",
    "public": true,
    "$promise": {},
    "$resolved": true
  },
  "doctor": {
    "dataSource": "mongodatabase",
    "public": true
  },
  "hospital": {
    "dataSource": "mongodatabase",
    "public": true
  },
  "patient": {
    "dataSource": "mongodatabase",
    "public": true
  },
  "generalMedical": {
    "dataSource": "mongodatabase",
    "public": true
  },
  "immunization": {
    "dataSource": "mongodatabase",
    "public": true
  },
  "encounter": {
    "dataSource": "mongodatabase",
    "public": true,
    "$promise": {},
    "$resolved": true
  },
  "message_user": {
    "dataSource": "mongodatabase",
    "public": true,
    "$promise": {},
    "$resolved": true
  },
  "message": {
    "dataSource": "mongodatabase",
    "public": true
  },
  "appointment": {
    "dataSource": "mongodatabase",
    "public": true
  },
  "prescription": {
    "dataSource": "mongodatabase",
    "public": true
  },
  "drug": {
    "dataSource": "mongodatabase",
    "public": true,
    "$promise": {},
    "$resolved": true
  },
  "hmo": {
    "dataSource": "mongodatabase",
    "public": true
  },
  "patientFinancial": {
    "dataSource": "mongodatabase",
    "public": true
  },
  "nigerianState": {
    "dataSource": "mongodatabase",
    "public": true
  },
  "admin": {
    "dataSource": "mongodatabase",
    "public": true
  },
  "company": {
    "dataSource": "mongodatabase",
    "public": true
  },
  "backup": {
    "dataSource": "mongodatabase",
    "public": false
  },
  "hospitalLog": {
    "dataSource": "mongodatabase",
    "public": true
  },
  "patientLab": {
    "dataSource": "mongodatabase",
    "public": true
  },
  "encounterBilling": {
    "dataSource": "mongodatabase",
    "public": true
  },
  "patientNote": {
    "dataSource": "mongodatabase",
    "public": true
  }
}
